{
    "msg": "Running %RUNNING_SHELL%",
    "version": "%%, version %&%",
    "runbox": "<p>%% comes with ABSOLUTELY NO WARRANTY and is free software; for details visit https://www.gnu.org/licenses/lgpl-3.0.en.html, or read the LICENSE file in the rootfs.</p> <p>Showing runbox (seubinBootBook lskey doesn't exist)</p> <div style='background-color: white; color: black; padding: 10px; width: 200px;'> <label>Run a book</label> <input style='width: 185px;' id='bookdir'></input> <br/> <button onclick='launchbook();'>Run book</button> <button onclick='writebootbook();'>Set as bootbook</button> </div>"
}
