{
    "msg": "Iniciando %RUNNING_SHELL%",
    "version": "%%, la versión %&%",
    "runbox": "<p>%% se ofrece SIN GARANTÍA ALGUNAS y es software libre; para más detalles, consulte https://www.gnu.org/licenses/lgpl-3.0.en.html, o lee el archivo LICENSE en el rootfs.</p> <p>Mostrando runbox (lskey seubinBootBook no existe)</p> <div style='background-color: white; color: black; padding: 10px; width: 265px;'> <label>Ejecutar un book</label> <input style='width: 255px;' id='bookdir'></input> <br/> <button onclick='launchbook();'>Ejecutar</button> <button onclick='writebootbook();'>Establecer como el bootbook</button> </div>"
}
